<?xml version="1.0" encoding="utf-8"?>
<!-- Generator: Adobe Illustrator 19.2.0, SVG Export Plug-In . SVG Version: 6.00 Build 0)  -->
<svg version="1.1" id="Layer_2" xmlns="http://www.w3.org/2000/svg" xmlns:xlink="http://www.w3.org/1999/xlink" x="0px" y="0px"
	 viewBox="0 0 258.7 45" style="enable-background:new 0 0 258.7 45;" xml:space="preserve">
<style type="text/css">
	.st0{fill:#FFFFFF;}
	.st1{fill:#EC0024;}
</style>
<path class="st0" d="M255.9,22.4c-0.3-9.4-7.8-17.5-17.3-19.2c-12.4-2.2-44.3-0.7-56.7-0.7c-10.9,0,9,0-2.8,0
	C167.2,2.6,65.7,2.2,53.3,2.1C40.8,1.9,36.4,2.5,23.8,2.5C15.3,2.6,7.6,7.6,4.4,15.1c-2.6,6.2-2.1,13.5,1.9,19
	c4.9,6.7,13.1,8.3,21.2,8.5C36.9,42.8,12.3,43,41,43c2.9,0,12.2,0.2,15,0.2c2.8,0.1,5.5,0.1,8.3,0.2c2.7,0.1,113.1,0.1,115.7,0.1
	c-86.5-0.6-120.1-0.4-1.3-0.2c9.9,0,38.3-0.5,48.2-0.7c8.7-0.2,17.4,0.2,23.8-6.5C254.2,32.3,256.1,27.4,255.9,22.4z"/>
<path class="st1" d="M258.7,22c-0.3-10.2-8-18.9-17.8-20.7c-12.7-2.3-45-0.8-57.9-0.8c-11.2,0-117.9-0.3-130.8-0.4
	C39.4,0,34.1-0.3,21.1,1.2C10.2,2.5,5,6,1.7,14.2c-2.7,6.7-2.2,14.6,2,20.5c5,7.2,13.5,9,21.8,9.2c9.7,0.2,150.9,1.1,153.6,1.1
	c-86-0.6-119.5-0.2-0.2,0c10.2,0,39.6-0.9,49.9-1.2c9-0.2,17.3-1.2,24.5-7C257.5,33.3,258.8,27.4,258.7,22z M10.4,12.7
	c-1.4,2-2.7,4.2-3.9,6.3C6,19.7,5,19.8,4.6,19c-1.5-2.8,2.1-6.8,4.4-8.6c0.3-0.3,2.7-1.3,4-1.9c0.3-0.1,0.5,0.2,0.3,0.4
	C12.4,9.9,10.5,12.5,10.4,12.7z M88.7,15.2c0.1-0.1,0.2-0.2,0.3-0.3c0,0.1,0,0.1-0.1,0.2C88.8,15.1,88.7,15.2,88.7,15.2z M6.8,26.8
	c1.4,3.5,11.1,11.2,14.1,12.4c-3,1.5-10.1-1.2-12-4.6C8,33,3.7,27.7,6.8,26.8z M244,39.3c-0.6,0.3-3.6,1-4,1c-10.3,0.9-6.1-1-5.8-1
	c2.5,0,5.8-1,7.6-1.9c0.6-0.3,5.5-2.9,6-2.1C248.3,36.3,244.7,39,244,39.3z"/>
</svg>
