<?xml version="1.0" encoding="utf-8"?>
<!-- Generator: Adobe Illustrator 19.2.0, SVG Export Plug-In . SVG Version: 6.00 Build 0)  -->
<svg version="1.1" id="Layer_1" xmlns="http://www.w3.org/2000/svg" xmlns:xlink="http://www.w3.org/1999/xlink" x="0px" y="0px"
	 viewBox="0 0 869.3 309.5" style="enable-background:new 0 0 869.3 309.5;" xml:space="preserve">
<style type="text/css">
	.st0{fill:#4E3976;}
</style>
<path class="st0" d="M209.5,36.3c-87-18-147.3,8.9-159.7,74.9c-12.8,68,32.1,150.6,136.8,166.6c106.2,16.3,149.2-19.8,149.2-19.8
	l-14,16.4c0,0,115.7,37.8,274.9,13.1C767.2,261.2,780.6,129.3,752,84.2c-35.7-56.3-92.2-60.1-134.2-56.3
	c-48,4.4-72.5,14.7-72.5,14.7l14.6,13.6c0,0-24.4-29.9-130.1-37.1S322.2,59.6,209.5,36.3z"/>
</svg>
